Fundamentos de programación y análisis de datos en R
…
Note que no se separa con coma ,.

mutate()

datos_acciones %>%  mutate(datos_acciones, coef_var = rendimientos / riesgo) %>% 
  select(6:8)
## # A tibble: 495 x 3
##    color titulo coef_var
##    <chr> <chr>     <dbl>
##  1 navy  A        0.0303
##  2 navy  AAL      0.0406
##  3 navy  AAP      0.0244
##  4 navy  AAPL     0.0533
##  5 navy  ABBV     0.0494
##  6 navy  ABC      0.0450
##  7 navy  ABMD     0.0521
##  8 navy  ABT      0.0341
##  9 navy  ACN      0.0475
## 10 navy  ADBE     0.0444
## # … with 485 more rows

relocate()

Cambiamos el roden de las variables.

datos_acciones %>% relocate(titulo, .before = rendimientos) %>% 
  select(1:5) 
## # A tibble: 495 x 5
##    titulo rendimientos riesgo probabilidad intercepto
##    <chr>         <dbl>  <dbl>        <dbl>      <dbl>
##  1 A          0.000545 0.0180        0.517      -152.
##  2 AAL        0.00119  0.0292        0.512      -257.
##  3 AAP        0.000449 0.0184        0.517      -543.
##  4 AAPL       0.000850 0.0160        0.524      -135.
##  5 ABBV       0.000805 0.0163        0.535      -265.
##  6 ABC        0.000615 0.0137        0.531      -363.
##  7 ABMD       0.00152  0.0293        0.525      -769.
##  8 ABT        0.000388 0.0114        0.510      -122.
##  9 ACN        0.000642 0.0135        0.532      -447.
## 10 ADBE       0.000772 0.0174        0.525      -605.
## # … with 485 more rows

arrange()

 datos_acciones %>% arrange((rendimientos)) %>% 
  select(1:5)
## # A tibble: 495 x 5
##    rendimientos riesgo probabilidad intercepto pendiente
##           <dbl>  <dbl>        <dbl>      <dbl>     <dbl>
##  1    -0.00253  0.0295        0.436      835.   -0.0471 
##  2    -0.000600 0.0347        0.493      475.   -0.0266 
##  3    -0.000561 0.0371        0.474      -19.7   0.00191
##  4    -0.000457 0.0215        0.490      471.   -0.0245 
##  5    -0.000436 0.0219        0.489      294.   -0.0154 
##  6    -0.000392 0.0313        0.490      253.   -0.0140 
##  7    -0.000391 0.0165        0.507      129.   -0.00594
##  8    -0.000313 0.0180        0.475      129.   -0.00609
##  9    -0.000306 0.0225        0.490      278.   -0.0138 
## 10    -0.000211 0.0130        0.493      104.   -0.00419
## # … with 485 more rows

 datos_acciones %>% arrange(desc(rendimientos)) %>% 
  select(1:5)
## # A tibble: 495 x 5
##    rendimientos riesgo probabilidad intercepto pendiente
##           <dbl>  <dbl>        <dbl>      <dbl>     <dbl>
##  1      0.00297 0.0208        0.594      -891.    0.0526
##  2      0.00218 0.0115        0.589      -814.    0.0495
##  3      0.00177 0.0277        0.544      -719.    0.0451
##  4      0.00162 0.0271        0.548     -1438.    0.0909
##  5      0.00160 0.0342        0.504      -806.    0.0541
##  6      0.00153 0.0179        0.559      -973.    0.0655
##  7      0.00152 0.0293        0.525      -769.    0.0510
##  8      0.00151 0.0244        0.543      -628.    0.0421
##  9      0.00141 0.0292        0.534      -560.    0.0388
## 10      0.00136 0.0318        0.513      -371.    0.0248
## # … with 485 more rows
…
## # A tibble: 6 x 3
##   Activo Fecha      Precio
##   <chr>  <date>      <dbl>
## 1 A      2010-01-04   22.4
## 2 A      2010-01-05   22.1
## 3 A      2010-01-06   22.1
## 4 A      2010-01-07   22.0
## 5 A      2010-01-08   22.0
## 6 A      2010-01-11   22.0

Antes, vamos a ordenarlos de forma descendente por fecha.

acciones_todas %>% arrange(desc(Fecha))
## # A tibble: 959,154 x 3
##    Activo Fecha      Precio
##    <chr>  <date>      <dbl>
##  1 A      2017-12-29   67.0
##  2 AAL    2017-12-29   52.0
##  3 AAP    2017-12-29   99.7
##  4 AAPL   2017-12-29   42.3
##  5 ABBV   2017-12-29   96.7
##  6 ABC    2017-12-29   91.8
##  7 ABMD   2017-12-29  187. 
##  8 ABT    2017-12-29   57.1
##  9 ACN    2017-12-29  153. 
## 10 ADBE   2017-12-29  175. 
## # … with 959,144 more rows
…
Podemos proceder a calcular los rendimientso

  acciones_todas %>% mutate(
    rendimientos = log(Precio/lead(Precio))
  )
## # A tibble: 959,154 x 4
## # Groups:   Activo [495]
##    Activo Fecha      Precio rendimientos
##    <chr>  <date>      <dbl>        <dbl>
##  1 A      2017-12-29   67.0    -0.00714 
##  2 A      2017-12-28   67.4     0.00223 
##  3 A      2017-12-27   67.3     0.000743
##  4 A      2017-12-26   67.2    -0.00149 
##  5 A      2017-12-22   67.3    -0.00252 
##  6 A      2017-12-21   67.5     0.00178 
##  7 A      2017-12-20   67.4    -0.00518 
##  8 A      2017-12-19   67.8     0.00133 
##  9 A      2017-12-18   67.7     0.000739
## 10 A      2017-12-15   67.6     0.0164  
## # … with 959,144 more rows

Calculemos el rendimiento promedio y la desviación

   acciones_todas %>% mutate(
    rendimientos = log(Precio/lead(Precio))) %>% 
      summarise(Promedio = mean(rendimientos,  na.rm= TRUE),
                Desviacion = sd(rendimientos, na.rm = TRUE)
                )
## # A tibble: 495 x 3
##    Activo Promedio Desviacion
##    <chr>     <dbl>      <dbl>
##  1 A      0.000545     0.0180
##  2 AAL    0.00119      0.0292
##  3 AAP    0.000449     0.0184
##  4 AAPL   0.000850     0.0160
##  5 ABBV   0.000805     0.0163
##  6 ABC    0.000615     0.0137
##  7 ABMD   0.00152      0.0293
##  8 ABT    0.000388     0.0114
##  9 ACN    0.000642     0.0135
## 10 ADBE   0.000772     0.0174
## # … with 485 more rows
…
